-debug
-target:library
-nowarn:0169
-langversion:7
-out:D:/yuanfang/Pro/MinecraftECSPro/Temp/Unity.Mathematics.dll
-nostdlib
-unsafe
-r:"C:\Program Files\Unity\2018.3.0f2\Editor\Data\Managed/UnityEngine/UnityEngine.dll"
-r:"C:\Program Files\Unity\2018.3.0f2\Editor\Data\Managed/UnityEngine/UnityEngine.AIModule.dll"
-r:"C:\Program Files\Unity\2018.3.0f2\Editor\Data\Managed/UnityEngine/UnityEngine.ARModule.dll"
-r:"C:\Program Files\Unity\2018.3.0f2\Editor\Data\Managed/UnityEngine/UnityEngine.AccessibilityModule.dll"
-r:"C:\Program Files\Unity\2018.3.0f2\Editor\Data\Managed/UnityEngine/UnityEngine.AnimationModule.dll"
-r:"C:\Program Files\Unity\2018.3.0f2\Editor\Data\Managed/UnityEngine/UnityEngine.AssetBundleModule.dll"
-r:"C:\Program Files\Unity\2018.3.0f2\Editor\Data\Managed/UnityEngine/UnityEngine.AudioModule.dll"
-r:"C:\Program Files\Unity\2018.3.0f2\Editor\Data\Managed/UnityEngine/UnityEngine.BaselibModule.dll"
-r:"C:\Program Files\Unity\2018.3.0f2\Editor\Data\Managed/UnityEngine/UnityEngine.ClothModule.dll"
-r:"C:\Program Files\Unity\2018.3.0f2\Editor\Data\Managed/UnityEngine/UnityEngine.ClusterInputModule.dll"
-r:"C:\Program Files\Unity\2018.3.0f2\Editor\Data\Managed/UnityEngine/UnityEngine.ClusterRendererModule.dll"
-r:"C:\Program Files\Unity\2018.3.0f2\Editor\Data\Managed/UnityEngine/UnityEngine.CoreModule.dll"
-r:"C:\Program Files\Unity\2018.3.0f2\Editor\Data\Managed/UnityEngine/UnityEngine.CrashReportingModule.dll"
-r:"C:\Program Files\Unity\2018.3.0f2\Editor\Data\Managed/UnityEngine/UnityEngine.DirectorModule.dll"
-r:"C:\Program Files\Unity\2018.3.0f2\Editor\Data\Managed/UnityEngine/UnityEngine.FileSystemHttpModule.dll"
-r:"C:\Program Files\Unity\2018.3.0f2\Editor\Data\Managed/UnityEngine/UnityEngine.GameCenterModule.dll"
-r:"C:\Program Files\Unity\2018.3.0f2\Editor\Data\Managed/UnityEngine/UnityEngine.GridModule.dll"
-r:"C:\Program Files\Unity\2018.3.0f2\Editor\Data\Managed/UnityEngine/UnityEngine.HotReloadModule.dll"
-r:"C:\Program Files\Unity\2018.3.0f2\Editor\Data\Managed/UnityEngine/UnityEngine.IMGUIModule.dll"
-r:"C:\Program Files\Unity\2018.3.0f2\Editor\Data\Managed/UnityEngine/UnityEngine.ImageConversionModule.dll"
-r:"C:\Program Files\Unity\2018.3.0f2\Editor\Data\Managed/UnityEngine/UnityEngine.InputModule.dll"
-r:"C:\Program Files\Unity\2018.3.0f2\Editor\Data\Managed/UnityEngine/UnityEngine.JSONSerializeModule.dll"
-r:"C:\Program Files\Unity\2018.3.0f2\Editor\Data\Managed/UnityEngine/UnityEngine.LocalizationModule.dll"
-r:"C:\Program Files\Unity\2018.3.0f2\Editor\Data\Managed/UnityEngine/UnityEngine.ParticleSystemModule.dll"
-r:"C:\Program Files\Unity\2018.3.0f2\Editor\Data\Managed/UnityEngine/UnityEngine.PerformanceReportingModule.dll"
-r:"C:\Program Files\Unity\2018.3.0f2\Editor\Data\Managed/UnityEngine/UnityEngine.PhysicsModule.dll"
-r:"C:\Program Files\Unity\2018.3.0f2\Editor\Data\Managed/UnityEngine/UnityEngine.Physics2DModule.dll"
-r:"C:\Program Files\Unity\2018.3.0f2\Editor\Data\Managed/UnityEngine/UnityEngine.ProfilerModule.dll"
-r:"C:\Program Files\Unity\2018.3.0f2\Editor\Data\Managed/UnityEngine/UnityEngine.ScreenCaptureModule.dll"
-r:"C:\Program Files\Unity\2018.3.0f2\Editor\Data\Managed/UnityEngine/UnityEngine.SharedInternalsModule.dll"
-r:"C:\Program Files\Unity\2018.3.0f2\Editor\Data\Managed/UnityEngine/UnityEngine.SpriteMaskModule.dll"
-r:"C:\Program Files\Unity\2018.3.0f2\Editor\Data\Managed/UnityEngine/UnityEngine.SpriteShapeModule.dll"
-r:"C:\Program Files\Unity\2018.3.0f2\Editor\Data\Managed/UnityEngine/UnityEngine.StreamingModule.dll"
-r:"C:\Program Files\Unity\2018.3.0f2\Editor\Data\Managed/UnityEngine/UnityEngine.StyleSheetsModule.dll"
-r:"C:\Program Files\Unity\2018.3.0f2\Editor\Data\Managed/UnityEngine/UnityEngine.SubstanceModule.dll"
-r:"C:\Program Files\Unity\2018.3.0f2\Editor\Data\Managed/UnityEngine/UnityEngine.TLSModule.dll"
-r:"C:\Program Files\Unity\2018.3.0f2\Editor\Data\Managed/UnityEngine/UnityEngine.TerrainModule.dll"
-r:"C:\Program Files\Unity\2018.3.0f2\Editor\Data\Managed/UnityEngine/UnityEngine.TerrainPhysicsModule.dll"
-r:"C:\Program Files\Unity\2018.3.0f2\Editor\Data\Managed/UnityEngine/UnityEngine.TextCoreModule.dll"
-r:"C:\Program Files\Unity\2018.3.0f2\Editor\Data\Managed/UnityEngine/UnityEngine.TextRenderingModule.dll"
-r:"C:\Program Files\Unity\2018.3.0f2\Editor\Data\Managed/UnityEngine/UnityEngine.TilemapModule.dll"
-r:"C:\Program Files\Unity\2018.3.0f2\Editor\Data\Managed/UnityEngine/UnityEngine.TimelineModule.dll"
-r:"C:\Program Files\Unity\2018.3.0f2\Editor\Data\Managed/UnityEngine/UnityEngine.UIModule.dll"
-r:"C:\Program Files\Unity\2018.3.0f2\Editor\Data\Managed/UnityEngine/UnityEngine.UIElementsModule.dll"
-r:"C:\Program Files\Unity\2018.3.0f2\Editor\Data\Managed/UnityEngine/UnityEngine.UNETModule.dll"
-r:"C:\Program Files\Unity\2018.3.0f2\Editor\Data\Managed/UnityEngine/UnityEngine.UmbraModule.dll"
-r:"C:\Program Files\Unity\2018.3.0f2\Editor\Data\Managed/UnityEngine/UnityEngine.UnityAnalyticsModule.dll"
-r:"C:\Program Files\Unity\2018.3.0f2\Editor\Data\Managed/UnityEngine/UnityEngine.UnityConnectModule.dll"
-r:"C:\Program Files\Unity\2018.3.0f2\Editor\Data\Managed/UnityEngine/UnityEngine.UnityTestProtocolModule.dll"
-r:"C:\Program Files\Unity\2018.3.0f2\Editor\Data\Managed/UnityEngine/UnityEngine.UnityWebRequestModule.dll"
-r:"C:\Program Files\Unity\2018.3.0f2\Editor\Data\Managed/UnityEngine/UnityEngine.UnityWebRequestAssetBundleModule.dll"
-r:"C:\Program Files\Unity\2018.3.0f2\Editor\Data\Managed/UnityEngine/UnityEngine.UnityWebRequestAudioModule.dll"
-r:"C:\Program Files\Unity\2018.3.0f2\Editor\Data\Managed/UnityEngine/UnityEngine.UnityWebRequestTextureModule.dll"
-r:"C:\Program Files\Unity\2018.3.0f2\Editor\Data\Managed/UnityEngine/UnityEngine.UnityWebRequestWWWModule.dll"
-r:"C:\Program Files\Unity\2018.3.0f2\Editor\Data\Managed/UnityEngine/UnityEngine.VFXModule.dll"
-r:"C:\Program Files\Unity\2018.3.0f2\Editor\Data\Managed/UnityEngine/UnityEngine.VRModule.dll"
-r:"C:\Program Files\Unity\2018.3.0f2\Editor\Data\Managed/UnityEngine/UnityEngine.VehiclesModule.dll"
-r:"C:\Program Files\Unity\2018.3.0f2\Editor\Data\Managed/UnityEngine/UnityEngine.VideoModule.dll"
-r:"C:\Program Files\Unity\2018.3.0f2\Editor\Data\Managed/UnityEngine/UnityEngine.WindModule.dll"
-r:"C:\Program Files\Unity\2018.3.0f2\Editor\Data\Managed/UnityEngine/UnityEngine.XRModule.dll"
-r:"C:\Program Files\Unity\2018.3.0f2\Editor\Data\Managed/UnityEditor.dll"
-r:"C:\Program Files\Unity\2018.3.0f2\Editor\Data\Managed/Unity.Locator.dll"
-r:"C:/Program Files/Unity/2018.3.0f2/Editor/Data/UnityExtensions/Unity/GUISystem/UnityEngine.UI.dll"
-r:"C:/Program Files/Unity/2018.3.0f2/Editor/Data/UnityExtensions/Unity/GUISystem/Editor/UnityEditor.UI.dll"
-r:"C:/Program Files/Unity/2018.3.0f2/Editor/Data/UnityExtensions/Unity/TestRunner/Editor/UnityEditor.TestRunner.dll"
-r:"C:/Program Files/Unity/2018.3.0f2/Editor/Data/UnityExtensions/Unity/TestRunner/UnityEngine.TestRunner.dll"
-r:"C:/Program Files/Unity/2018.3.0f2/Editor/Data/UnityExtensions/Unity/TestRunner/net35/unity-custom/nunit.framework.dll"
-r:"C:/Program Files/Unity/2018.3.0f2/Editor/Data/UnityExtensions/Unity/Timeline/RuntimeEditor/UnityEngine.Timeline.dll"
-r:"C:/Program Files/Unity/2018.3.0f2/Editor/Data/UnityExtensions/Unity/Timeline/Editor/UnityEditor.Timeline.dll"
-r:"C:/Program Files/Unity/2018.3.0f2/Editor/Data/UnityExtensions/Unity/Networking/UnityEngine.Networking.dll"
-r:"C:/Program Files/Unity/2018.3.0f2/Editor/Data/UnityExtensions/Unity/Networking/Editor/UnityEditor.Networking.dll"
-r:"C:/Program Files/Unity/2018.3.0f2/Editor/Data/UnityExtensions/Unity/UnityGoogleAudioSpatializer/Editor/UnityEditor.GoogleAudioSpatializer.dll"
-r:"C:/Program Files/Unity/2018.3.0f2/Editor/Data/UnityExtensions/Unity/UnityGoogleAudioSpatializer/RuntimeEditor/UnityEngine.GoogleAudioSpatializer.dll"
-r:"C:/Program Files/Unity/2018.3.0f2/Editor/Data/UnityExtensions/Unity/UnitySpatialTracking/Editor/UnityEditor.SpatialTracking.dll"
-r:"C:/Program Files/Unity/2018.3.0f2/Editor/Data/UnityExtensions/Unity/UnitySpatialTracking/RuntimeEditor/UnityEngine.SpatialTracking.dll"
-r:"C:/Program Files/Unity/2018.3.0f2/Editor/Data/UnityExtensions/Unity/UnityVR/Editor/UnityEditor.VR.dll"
-r:"C:/Program Files/Unity/2018.3.0f2/Editor/Data/Managed/UnityEditor.Graphs.dll"
-r:"C:/Program Files/Unity/2018.3.0f2/Editor/Data/PlaybackEngines/windowsstandalonesupport/UnityEditor.WindowsStandalone.Extensions.dll"
-r:"C:/Program Files (x86)/Microsoft Visual Studio Tools for Unity/15.0/Editor/SyntaxTree.VisualStudio.Unity.Bridge.dll"
-r:D:/yuanfang/Pro/MinecraftECSPro/Library/PackageCache/com.unity.analytics@3.2.2/Unity.Analytics.Editor.dll
-r:D:/yuanfang/Pro/MinecraftECSPro/Library/PackageCache/com.unity.analytics@3.2.2/Unity.Analytics.StandardEvents.dll
-r:D:/yuanfang/Pro/MinecraftECSPro/Library/PackageCache/com.unity.analytics@3.2.2/Unity.Analytics.Tracker.dll
-r:D:/yuanfang/Pro/MinecraftECSPro/Library/PackageCache/com.unity.collections@0.0.9-preview.10/System.Runtime.CompilerServices.Unsafe.dll
-r:D:/yuanfang/Pro/MinecraftECSPro/Library/PackageCache/com.unity.properties@0.2.11-preview/Editor/Serialization/External/Cecil/Mono.Cecil.dll
-r:D:/yuanfang/Pro/MinecraftECSPro/Library/PackageCache/com.unity.properties@0.2.11-preview/Editor/Serialization/External/Cecil/Mono.Cecil.Mdb.dll
-r:D:/yuanfang/Pro/MinecraftECSPro/Library/PackageCache/com.unity.properties@0.2.11-preview/Editor/Serialization/External/Cecil/Mono.Cecil.Pdb.dll
-r:D:/yuanfang/Pro/MinecraftECSPro/Library/PackageCache/com.unity.properties@0.2.11-preview/Editor/Serialization/External/Cecil/Mono.Cecil.Rocks.dll
-r:"C:\Program Files\Unity\2018.3.0f2\Editor\Data\NetStandard\ref\2.0.0\netstandard.dll"
-r:"C:\Program Files\Unity\2018.3.0f2\Editor\Data\NetStandard\compat\2.0.0\shims\netstandard\Microsoft.Win32.Primitives.dll"
-r:"C:\Program Files\Unity\2018.3.0f2\Editor\Data\NetStandard\compat\2.0.0\shims\netstandard\System.AppContext.dll"
-r:"C:\Program Files\Unity\2018.3.0f2\Editor\Data\NetStandard\compat\2.0.0\shims\netstandard\System.Collections.Concurrent.dll"
-r:"C:\Program Files\Unity\2018.3.0f2\Editor\Data\NetStandard\compat\2.0.0\shims\netstandard\System.Collections.dll"
-r:"C:\Program Files\Unity\2018.3.0f2\Editor\Data\NetStandard\compat\2.0.0\shims\netstandard\System.Collections.NonGeneric.dll"
-r:"C:\Program Files\Unity\2018.3.0f2\Editor\Data\NetStandard\compat\2.0.0\shims\netstandard\System.Collections.Specialized.dll"
-r:"C:\Program Files\Unity\2018.3.0f2\Editor\Data\NetStandard\compat\2.0.0\shims\netstandard\System.ComponentModel.dll"
-r:"C:\Program Files\Unity\2018.3.0f2\Editor\Data\NetStandard\compat\2.0.0\shims\netstandard\System.ComponentModel.EventBasedAsync.dll"
-r:"C:\Program Files\Unity\2018.3.0f2\Editor\Data\NetStandard\compat\2.0.0\shims\netstandard\System.ComponentModel.Primitives.dll"
-r:"C:\Program Files\Unity\2018.3.0f2\Editor\Data\NetStandard\compat\2.0.0\shims\netstandard\System.ComponentModel.TypeConverter.dll"
-r:"C:\Program Files\Unity\2018.3.0f2\Editor\Data\NetStandard\compat\2.0.0\shims\netstandard\System.Console.dll"
-r:"C:\Program Files\Unity\2018.3.0f2\Editor\Data\NetStandard\compat\2.0.0\shims\netstandard\System.Data.Common.dll"
-r:"C:\Program Files\Unity\2018.3.0f2\Editor\Data\NetStandard\compat\2.0.0\shims\netstandard\System.Diagnostics.Contracts.dll"
-r:"C:\Program Files\Unity\2018.3.0f2\Editor\Data\NetStandard\compat\2.0.0\shims\netstandard\System.Diagnostics.Debug.dll"
-r:"C:\Program Files\Unity\2018.3.0f2\Editor\Data\NetStandard\compat\2.0.0\shims\netstandard\System.Diagnostics.FileVersionInfo.dll"
-r:"C:\Program Files\Unity\2018.3.0f2\Editor\Data\NetStandard\compat\2.0.0\shims\netstandard\System.Diagnostics.Process.dll"
-r:"C:\Program Files\Unity\2018.3.0f2\Editor\Data\NetStandard\compat\2.0.0\shims\netstandard\System.Diagnostics.StackTrace.dll"
-r:"C:\Program Files\Unity\2018.3.0f2\Editor\Data\NetStandard\compat\2.0.0\shims\netstandard\System.Diagnostics.TextWriterTraceListener.dll"
-r:"C:\Program Files\Unity\2018.3.0f2\Editor\Data\NetStandard\compat\2.0.0\shims\netstandard\System.Diagnostics.Tools.dll"
-r:"C:\Program Files\Unity\2018.3.0f2\Editor\Data\NetStandard\compat\2.0.0\shims\netstandard\System.Diagnostics.TraceSource.dll"
-r:"C:\Program Files\Unity\2018.3.0f2\Editor\Data\NetStandard\compat\2.0.0\shims\netstandard\System.Diagnostics.Tracing.dll"
-r:"C:\Program Files\Unity\2018.3.0f2\Editor\Data\NetStandard\compat\2.0.0\shims\netstandard\System.Drawing.Primitives.dll"
-r:"C:\Program Files\Unity\2018.3.0f2\Editor\Data\NetStandard\compat\2.0.0\shims\netstandard\System.Dynamic.Runtime.dll"
-r:"C:\Program Files\Unity\2018.3.0f2\Editor\Data\NetStandard\compat\2.0.0\shims\netstandard\System.Globalization.Calendars.dll"
-r:"C:\Program Files\Unity\2018.3.0f2\Editor\Data\NetStandard\compat\2.0.0\shims\netstandard\System.Globalization.dll"
-r:"C:\Program Files\Unity\2018.3.0f2\Editor\Data\NetStandard\compat\2.0.0\shims\netstandard\System.Globalization.Extensions.dll"
-r:"C:\Program Files\Unity\2018.3.0f2\Editor\Data\NetStandard\compat\2.0.0\shims\netstandard\System.IO.Compression.dll"
-r:"C:\Program Files\Unity\2018.3.0f2\Editor\Data\NetStandard\compat\2.0.0\shims\netstandard\System.IO.Compression.ZipFile.dll"
-r:"C:\Program Files\Unity\2018.3.0f2\Editor\Data\NetStandard\compat\2.0.0\shims\netstandard\System.IO.dll"
-r:"C:\Program Files\Unity\2018.3.0f2\Editor\Data\NetStandard\compat\2.0.0\shims\netstandard\System.IO.FileSystem.dll"
-r:"C:\Program Files\Unity\2018.3.0f2\Editor\Data\NetStandard\compat\2.0.0\shims\netstandard\System.IO.FileSystem.DriveInfo.dll"
-r:"C:\Program Files\Unity\2018.3.0f2\Editor\Data\NetStandard\compat\2.0.0\shims\netstandard\System.IO.FileSystem.Primitives.dll"
-r:"C:\Program Files\Unity\2018.3.0f2\Editor\Data\NetStandard\compat\2.0.0\shims\netstandard\System.IO.FileSystem.Watcher.dll"
-r:"C:\Program Files\Unity\2018.3.0f2\Editor\Data\NetStandard\compat\2.0.0\shims\netstandard\System.IO.IsolatedStorage.dll"
-r:"C:\Program Files\Unity\2018.3.0f2\Editor\Data\NetStandard\compat\2.0.0\shims\netstandard\System.IO.MemoryMappedFiles.dll"
-r:"C:\Program Files\Unity\2018.3.0f2\Editor\Data\NetStandard\compat\2.0.0\shims\netstandard\System.IO.Pipes.dll"
-r:"C:\Program Files\Unity\2018.3.0f2\Editor\Data\NetStandard\compat\2.0.0\shims\netstandard\System.IO.UnmanagedMemoryStream.dll"
-r:"C:\Program Files\Unity\2018.3.0f2\Editor\Data\NetStandard\compat\2.0.0\shims\netstandard\System.Linq.dll"
-r:"C:\Program Files\Unity\2018.3.0f2\Editor\Data\NetStandard\compat\2.0.0\shims\netstandard\System.Linq.Expressions.dll"
-r:"C:\Program Files\Unity\2018.3.0f2\Editor\Data\NetStandard\compat\2.0.0\shims\netstandard\System.Linq.Parallel.dll"
-r:"C:\Program Files\Unity\2018.3.0f2\Editor\Data\NetStandard\compat\2.0.0\shims\netstandard\System.Linq.Queryable.dll"
-r:"C:\Program Files\Unity\2018.3.0f2\Editor\Data\NetStandard\compat\2.0.0\shims\netstandard\System.Net.Http.dll"
-r:"C:\Program Files\Unity\2018.3.0f2\Editor\Data\NetStandard\compat\2.0.0\shims\netstandard\System.Net.NameResolution.dll"
-r:"C:\Program Files\Unity\2018.3.0f2\Editor\Data\NetStandard\compat\2.0.0\shims\netstandard\System.Net.NetworkInformation.dll"
-r:"C:\Program Files\Unity\2018.3.0f2\Editor\Data\NetStandard\compat\2.0.0\shims\netstandard\System.Net.Ping.dll"
-r:"C:\Program Files\Unity\2018.3.0f2\Editor\Data\NetStandard\compat\2.0.0\shims\netstandard\System.Net.Primitives.dll"
-r:"C:\Program Files\Unity\2018.3.0f2\Editor\Data\NetStandard\compat\2.0.0\shims\netstandard\System.Net.Requests.dll"
-r:"C:\Program Files\Unity\2018.3.0f2\Editor\Data\NetStandard\compat\2.0.0\shims\netstandard\System.Net.Security.dll"
-r:"C:\Program Files\Unity\2018.3.0f2\Editor\Data\NetStandard\compat\2.0.0\shims\netstandard\System.Net.Sockets.dll"
-r:"C:\Program Files\Unity\2018.3.0f2\Editor\Data\NetStandard\compat\2.0.0\shims\netstandard\System.Net.WebHeaderCollection.dll"
-r:"C:\Program Files\Unity\2018.3.0f2\Editor\Data\NetStandard\compat\2.0.0\shims\netstandard\System.Net.WebSockets.Client.dll"
-r:"C:\Program Files\Unity\2018.3.0f2\Editor\Data\NetStandard\compat\2.0.0\shims\netstandard\System.Net.WebSockets.dll"
-r:"C:\Program Files\Unity\2018.3.0f2\Editor\Data\NetStandard\compat\2.0.0\shims\netstandard\System.ObjectModel.dll"
-r:"C:\Program Files\Unity\2018.3.0f2\Editor\Data\NetStandard\compat\2.0.0\shims\netstandard\System.Reflection.dll"
-r:"C:\Program Files\Unity\2018.3.0f2\Editor\Data\NetStandard\compat\2.0.0\shims\netstandard\System.Reflection.Extensions.dll"
-r:"C:\Program Files\Unity\2018.3.0f2\Editor\Data\NetStandard\compat\2.0.0\shims\netstandard\System.Reflection.Primitives.dll"
-r:"C:\Program Files\Unity\2018.3.0f2\Editor\Data\NetStandard\compat\2.0.0\shims\netstandard\System.Resources.Reader.dll"
-r:"C:\Program Files\Unity\2018.3.0f2\Editor\Data\NetStandard\compat\2.0.0\shims\netstandard\System.Resources.ResourceManager.dll"
-r:"C:\Program Files\Unity\2018.3.0f2\Editor\Data\NetStandard\compat\2.0.0\shims\netstandard\System.Resources.Writer.dll"
-r:"C:\Program Files\Unity\2018.3.0f2\Editor\Data\NetStandard\compat\2.0.0\shims\netstandard\System.Runtime.CompilerServices.VisualC.dll"
-r:"C:\Program Files\Unity\2018.3.0f2\Editor\Data\NetStandard\compat\2.0.0\shims\netstandard\System.Runtime.dll"
-r:"C:\Program Files\Unity\2018.3.0f2\Editor\Data\NetStandard\compat\2.0.0\shims\netstandard\System.Runtime.Extensions.dll"
-r:"C:\Program Files\Unity\2018.3.0f2\Editor\Data\NetStandard\compat\2.0.0\shims\netstandard\System.Runtime.Handles.dll"
-r:"C:\Program Files\Unity\2018.3.0f2\Editor\Data\NetStandard\compat\2.0.0\shims\netstandard\System.Runtime.InteropServices.dll"
-r:"C:\Program Files\Unity\2018.3.0f2\Editor\Data\NetStandard\compat\2.0.0\shims\netstandard\System.Runtime.InteropServices.RuntimeInformation.dll"
-r:"C:\Program Files\Unity\2018.3.0f2\Editor\Data\NetStandard\compat\2.0.0\shims\netstandard\System.Runtime.Numerics.dll"
-r:"C:\Program Files\Unity\2018.3.0f2\Editor\Data\NetStandard\compat\2.0.0\shims\netstandard\System.Runtime.Serialization.Formatters.dll"
-r:"C:\Program Files\Unity\2018.3.0f2\Editor\Data\NetStandard\compat\2.0.0\shims\netstandard\System.Runtime.Serialization.Json.dll"
-r:"C:\Program Files\Unity\2018.3.0f2\Editor\Data\NetStandard\compat\2.0.0\shims\netstandard\System.Runtime.Serialization.Primitives.dll"
-r:"C:\Program Files\Unity\2018.3.0f2\Editor\Data\NetStandard\compat\2.0.0\shims\netstandard\System.Runtime.Serialization.Xml.dll"
-r:"C:\Program Files\Unity\2018.3.0f2\Editor\Data\NetStandard\compat\2.0.0\shims\netstandard\System.Security.Claims.dll"
-r:"C:\Program Files\Unity\2018.3.0f2\Editor\Data\NetStandard\compat\2.0.0\shims\netstandard\System.Security.Cryptography.Algorithms.dll"
-r:"C:\Program Files\Unity\2018.3.0f2\Editor\Data\NetStandard\compat\2.0.0\shims\netstandard\System.Security.Cryptography.Csp.dll"
-r:"C:\Program Files\Unity\2018.3.0f2\Editor\Data\NetStandard\compat\2.0.0\shims\netstandard\System.Security.Cryptography.Encoding.dll"
-r:"C:\Program Files\Unity\2018.3.0f2\Editor\Data\NetStandard\compat\2.0.0\shims\netstandard\System.Security.Cryptography.Primitives.dll"
-r:"C:\Program Files\Unity\2018.3.0f2\Editor\Data\NetStandard\compat\2.0.0\shims\netstandard\System.Security.Cryptography.X509Certificates.dll"
-r:"C:\Program Files\Unity\2018.3.0f2\Editor\Data\NetStandard\compat\2.0.0\shims\netstandard\System.Security.Principal.dll"
-r:"C:\Program Files\Unity\2018.3.0f2\Editor\Data\NetStandard\compat\2.0.0\shims\netstandard\System.Security.SecureString.dll"
-r:"C:\Program Files\Unity\2018.3.0f2\Editor\Data\NetStandard\compat\2.0.0\shims\netstandard\System.Text.Encoding.dll"
-r:"C:\Program Files\Unity\2018.3.0f2\Editor\Data\NetStandard\compat\2.0.0\shims\netstandard\System.Text.Encoding.Extensions.dll"
-r:"C:\Program Files\Unity\2018.3.0f2\Editor\Data\NetStandard\compat\2.0.0\shims\netstandard\System.Text.RegularExpressions.dll"
-r:"C:\Program Files\Unity\2018.3.0f2\Editor\Data\NetStandard\compat\2.0.0\shims\netstandard\System.Threading.dll"
-r:"C:\Program Files\Unity\2018.3.0f2\Editor\Data\NetStandard\compat\2.0.0\shims\netstandard\System.Threading.Overlapped.dll"
-r:"C:\Program Files\Unity\2018.3.0f2\Editor\Data\NetStandard\compat\2.0.0\shims\netstandard\System.Threading.Tasks.dll"
-r:"C:\Program Files\Unity\2018.3.0f2\Editor\Data\NetStandard\compat\2.0.0\shims\netstandard\System.Threading.Tasks.Parallel.dll"
-r:"C:\Program Files\Unity\2018.3.0f2\Editor\Data\NetStandard\compat\2.0.0\shims\netstandard\System.Threading.Thread.dll"
-r:"C:\Program Files\Unity\2018.3.0f2\Editor\Data\NetStandard\compat\2.0.0\shims\netstandard\System.Threading.ThreadPool.dll"
-r:"C:\Program Files\Unity\2018.3.0f2\Editor\Data\NetStandard\compat\2.0.0\shims\netstandard\System.Threading.Timer.dll"
-r:"C:\Program Files\Unity\2018.3.0f2\Editor\Data\NetStandard\compat\2.0.0\shims\netstandard\System.ValueTuple.dll"
-r:"C:\Program Files\Unity\2018.3.0f2\Editor\Data\NetStandard\compat\2.0.0\shims\netstandard\System.Xml.ReaderWriter.dll"
-r:"C:\Program Files\Unity\2018.3.0f2\Editor\Data\NetStandard\compat\2.0.0\shims\netstandard\System.Xml.XDocument.dll"
-r:"C:\Program Files\Unity\2018.3.0f2\Editor\Data\NetStandard\compat\2.0.0\shims\netstandard\System.Xml.XmlDocument.dll"
-r:"C:\Program Files\Unity\2018.3.0f2\Editor\Data\NetStandard\compat\2.0.0\shims\netstandard\System.Xml.XmlSerializer.dll"
-r:"C:\Program Files\Unity\2018.3.0f2\Editor\Data\NetStandard\compat\2.0.0\shims\netstandard\System.Xml.XPath.dll"
-r:"C:\Program Files\Unity\2018.3.0f2\Editor\Data\NetStandard\compat\2.0.0\shims\netstandard\System.Xml.XPath.XDocument.dll"
-r:"C:\Program Files\Unity\2018.3.0f2\Editor\Data\NetStandard\Extensions\2.0.0\System.Numerics.Vectors.dll"
-r:"C:\Program Files\Unity\2018.3.0f2\Editor\Data\NetStandard\Extensions\2.0.0\System.Runtime.InteropServices.WindowsRuntime.dll"
-r:"C:\Program Files\Unity\2018.3.0f2\Editor\Data\NetStandard\compat\2.0.0\shims\netfx\mscorlib.dll"
-r:"C:\Program Files\Unity\2018.3.0f2\Editor\Data\NetStandard\compat\2.0.0\shims\netfx\System.ComponentModel.Composition.dll"
-r:"C:\Program Files\Unity\2018.3.0f2\Editor\Data\NetStandard\compat\2.0.0\shims\netfx\System.Core.dll"
-r:"C:\Program Files\Unity\2018.3.0f2\Editor\Data\NetStandard\compat\2.0.0\shims\netfx\System.Data.dll"
-r:"C:\Program Files\Unity\2018.3.0f2\Editor\Data\NetStandard\compat\2.0.0\shims\netfx\System.dll"
-r:"C:\Program Files\Unity\2018.3.0f2\Editor\Data\NetStandard\compat\2.0.0\shims\netfx\System.Drawing.dll"
-r:"C:\Program Files\Unity\2018.3.0f2\Editor\Data\NetStandard\compat\2.0.0\shims\netfx\System.IO.Compression.FileSystem.dll"
-r:"C:\Program Files\Unity\2018.3.0f2\Editor\Data\NetStandard\compat\2.0.0\shims\netfx\System.Net.dll"
-r:"C:\Program Files\Unity\2018.3.0f2\Editor\Data\NetStandard\compat\2.0.0\shims\netfx\System.Numerics.dll"
-r:"C:\Program Files\Unity\2018.3.0f2\Editor\Data\NetStandard\compat\2.0.0\shims\netfx\System.Runtime.Serialization.dll"
-r:"C:\Program Files\Unity\2018.3.0f2\Editor\Data\NetStandard\compat\2.0.0\shims\netfx\System.ServiceModel.Web.dll"
-r:"C:\Program Files\Unity\2018.3.0f2\Editor\Data\NetStandard\compat\2.0.0\shims\netfx\System.Transactions.dll"
-r:"C:\Program Files\Unity\2018.3.0f2\Editor\Data\NetStandard\compat\2.0.0\shims\netfx\System.Web.dll"
-r:"C:\Program Files\Unity\2018.3.0f2\Editor\Data\NetStandard\compat\2.0.0\shims\netfx\System.Windows.dll"
-r:"C:\Program Files\Unity\2018.3.0f2\Editor\Data\NetStandard\compat\2.0.0\shims\netfx\System.Xml.dll"
-r:"C:\Program Files\Unity\2018.3.0f2\Editor\Data\NetStandard\compat\2.0.0\shims\netfx\System.Xml.Linq.dll"
-r:"C:\Program Files\Unity\2018.3.0f2\Editor\Data\NetStandard\compat\2.0.0\shims\netfx\System.Xml.Serialization.dll"
-d:UNITY_5_3_OR_NEWER
-d:UNITY_5_4_OR_NEWER
-d:UNITY_5_5_OR_NEWER
-d:UNITY_5_6_OR_NEWER
-d:UNITY_2017_1_OR_NEWER
-d:UNITY_2017_2_OR_NEWER
-d:UNITY_2017_3_OR_NEWER
-d:UNITY_2017_4_OR_NEWER
-d:UNITY_2018_1_OR_NEWER
-d:UNITY_2018_2_OR_NEWER
-d:UNITY_2018_3_OR_NEWER
-d:UNITY_2018_3_0
-d:UNITY_2018_3
-d:UNITY_2018
-d:PLATFORM_ARCH_64
-d:UNITY_64
-d:UNITY_INCLUDE_TESTS
-d:UNITY_ANALYTICS
-d:ENABLE_AUDIO
-d:ENABLE_CACHING
-d:ENABLE_CLOTH
-d:ENABLE_DUCK_TYPING
-d:ENABLE_MICROPHONE
-d:ENABLE_MULTIPLE_DISPLAYS
-d:ENABLE_PHYSICS
-d:ENABLE_SPRITES
-d:ENABLE_GRID
-d:ENABLE_TILEMAP
-d:ENABLE_TERRAIN
-d:ENABLE_TEXTURE_STREAMING
-d:ENABLE_DIRECTOR
-d:ENABLE_UNET
-d:ENABLE_LZMA
-d:ENABLE_UNITYEVENTS
-d:ENABLE_WEBCAM
-d:ENABLE_WWW
-d:ENABLE_CLOUD_SERVICES_COLLAB
-d:ENABLE_CLOUD_SERVICES_COLLAB_SOFTLOCKS
-d:ENABLE_CLOUD_SERVICES_ADS
-d:ENABLE_CLOUD_HUB
-d:ENABLE_CLOUD_PROJECT_ID
-d:ENABLE_CLOUD_SERVICES_USE_WEBREQUEST
-d:ENABLE_CLOUD_SERVICES_UNET
-d:ENABLE_CLOUD_SERVICES_BUILD
-d:ENABLE_CLOUD_LICENSE
-d:ENABLE_EDITOR_HUB
-d:ENABLE_EDITOR_HUB_LICENSE
-d:ENABLE_WEBSOCKET_CLIENT
-d:ENABLE_DIRECTOR_AUDIO
-d:ENABLE_DIRECTOR_TEXTURE
-d:ENABLE_TIMELINE
-d:ENABLE_EDITOR_METRICS
-d:ENABLE_EDITOR_METRICS_CACHING
-d:ENABLE_MANAGED_JOBS
-d:ENABLE_MANAGED_TRANSFORM_JOBS
-d:ENABLE_MANAGED_ANIMATION_JOBS
-d:INCLUDE_DYNAMIC_GI
-d:INCLUDE_GI
-d:ENABLE_MONO_BDWGC
-d:PLATFORM_SUPPORTS_MONO
-d:RENDER_SOFTWARE_CURSOR
-d:INCLUDE_PUBNUB
-d:ENABLE_VIDEO
-d:ENABLE_CUSTOM_RENDER_TEXTURE
-d:ENABLE_LOCALIZATION
-d:PLATFORM_STANDALONE_WIN
-d:PLATFORM_STANDALONE
-d:UNITY_STANDALONE_WIN
-d:UNITY_STANDALONE
-d:ENABLE_SUBSTANCE
-d:ENABLE_RUNTIME_GI
-d:ENABLE_MOVIES
-d:ENABLE_NETWORK
-d:ENABLE_CRUNCH_TEXTURE_COMPRESSION
-d:ENABLE_UNITYWEBREQUEST
-d:ENABLE_CLOUD_SERVICES
-d:ENABLE_CLOUD_SERVICES_ANALYTICS
-d:ENABLE_CLOUD_SERVICES_PURCHASING
-d:ENABLE_CLOUD_SERVICES_CRASH_REPORTING
-d:ENABLE_OUT_OF_PROCESS_CRASH_HANDLER
-d:ENABLE_EVENT_QUEUE
-d:ENABLE_CLUSTER_SYNC
-d:ENABLE_CLUSTERINPUT
-d:ENABLE_VR
-d:ENABLE_AR
-d:ENABLE_WEBSOCKET_HOST
-d:ENABLE_MONO
-d:NET_STANDARD_2_0
-d:ENABLE_PROFILER
-d:DEBUG
-d:TRACE
-d:UNITY_ASSERTIONS
-d:UNITY_EDITOR
-d:UNITY_EDITOR_64
-d:UNITY_EDITOR_WIN
-d:ENABLE_UNITY_COLLECTIONS_CHECKS
-d:ENABLE_BURST_AOT
-d:UNITY_TEAM_LICENSE
-d:ENABLE_VSTU
-d:UNITY_POST_PROCESSING_STACK_V2
-d:CROSS_PLATFORM_INPUT
-d:CSHARP_7_OR_LATER
-d:CSHARP_7_3_OR_NEWER
-i:D:/yuanfang/Pro/MinecraftECSPro/Library/PackageCache/com.unity.mathematics@0.0.12-preview.19/Unity.Mathematics/bool2.gen.cs
-i:D:/yuanfang/Pro/MinecraftECSPro/Library/PackageCache/com.unity.mathematics@0.0.12-preview.19/Unity.Mathematics/bool2x2.gen.cs
-i:D:/yuanfang/Pro/MinecraftECSPro/Library/PackageCache/com.unity.mathematics@0.0.12-preview.19/Unity.Mathematics/bool2x3.gen.cs
-i:D:/yuanfang/Pro/MinecraftECSPro/Library/PackageCache/com.unity.mathematics@0.0.12-preview.19/Unity.Mathematics/bool2x4.gen.cs
-i:D:/yuanfang/Pro/MinecraftECSPro/Library/PackageCache/com.unity.mathematics@0.0.12-preview.19/Unity.Mathematics/bool3.gen.cs
-i:D:/yuanfang/Pro/MinecraftECSPro/Library/PackageCache/com.unity.mathematics@0.0.12-preview.19/Unity.Mathematics/bool3x2.gen.cs
-i:D:/yuanfang/Pro/MinecraftECSPro/Library/PackageCache/com.unity.mathematics@0.0.12-preview.19/Unity.Mathematics/bool3x3.gen.cs
-i:D:/yuanfang/Pro/MinecraftECSPro/Library/PackageCache/com.unity.mathematics@0.0.12-preview.19/Unity.Mathematics/bool3x4.gen.cs
-i:D:/yuanfang/Pro/MinecraftECSPro/Library/PackageCache/com.unity.mathematics@0.0.12-preview.19/Unity.Mathematics/bool4.gen.cs
-i:D:/yuanfang/Pro/MinecraftECSPro/Library/PackageCache/com.unity.mathematics@0.0.12-preview.19/Unity.Mathematics/bool4x2.gen.cs
-i:D:/yuanfang/Pro/MinecraftECSPro/Library/PackageCache/com.unity.mathematics@0.0.12-preview.19/Unity.Mathematics/bool4x3.gen.cs
-i:D:/yuanfang/Pro/MinecraftECSPro/Library/PackageCache/com.unity.mathematics@0.0.12-preview.19/Unity.Mathematics/bool4x4.gen.cs
-i:D:/yuanfang/Pro/MinecraftECSPro/Library/PackageCache/com.unity.mathematics@0.0.12-preview.19/Unity.Mathematics/double2.gen.cs
-i:D:/yuanfang/Pro/MinecraftECSPro/Library/PackageCache/com.unity.mathematics@0.0.12-preview.19/Unity.Mathematics/double2x2.gen.cs
-i:D:/yuanfang/Pro/MinecraftECSPro/Library/PackageCache/com.unity.mathematics@0.0.12-preview.19/Unity.Mathematics/double2x3.gen.cs
-i:D:/yuanfang/Pro/MinecraftECSPro/Library/PackageCache/com.unity.mathematics@0.0.12-preview.19/Unity.Mathematics/double2x4.gen.cs
-i:D:/yuanfang/Pro/MinecraftECSPro/Library/PackageCache/com.unity.mathematics@0.0.12-preview.19/Unity.Mathematics/double3.gen.cs
-i:D:/yuanfang/Pro/MinecraftECSPro/Library/PackageCache/com.unity.mathematics@0.0.12-preview.19/Unity.Mathematics/double3x2.gen.cs
-i:D:/yuanfang/Pro/MinecraftECSPro/Library/PackageCache/com.unity.mathematics@0.0.12-preview.19/Unity.Mathematics/double3x3.gen.cs
-i:D:/yuanfang/Pro/MinecraftECSPro/Library/PackageCache/com.unity.mathematics@0.0.12-preview.19/Unity.Mathematics/double3x4.gen.cs
-i:D:/yuanfang/Pro/MinecraftECSPro/Library/PackageCache/com.unity.mathematics@0.0.12-preview.19/Unity.Mathematics/double4.gen.cs
-i:D:/yuanfang/Pro/MinecraftECSPro/Library/PackageCache/com.unity.mathematics@0.0.12-preview.19/Unity.Mathematics/double4x2.gen.cs
-i:D:/yuanfang/Pro/MinecraftECSPro/Library/PackageCache/com.unity.mathematics@0.0.12-preview.19/Unity.Mathematics/double4x3.gen.cs
-i:D:/yuanfang/Pro/MinecraftECSPro/Library/PackageCache/com.unity.mathematics@0.0.12-preview.19/Unity.Mathematics/double4x4.gen.cs
-i:D:/yuanfang/Pro/MinecraftECSPro/Library/PackageCache/com.unity.mathematics@0.0.12-preview.19/Unity.Mathematics/float2.gen.cs
-i:D:/yuanfang/Pro/MinecraftECSPro/Library/PackageCache/com.unity.mathematics@0.0.12-preview.19/Unity.Mathematics/float2x2.gen.cs
-i:D:/yuanfang/Pro/MinecraftECSPro/Library/PackageCache/com.unity.mathematics@0.0.12-preview.19/Unity.Mathematics/float2x3.gen.cs
-i:D:/yuanfang/Pro/MinecraftECSPro/Library/PackageCache/com.unity.mathematics@0.0.12-preview.19/Unity.Mathematics/float2x4.gen.cs
-i:D:/yuanfang/Pro/MinecraftECSPro/Library/PackageCache/com.unity.mathematics@0.0.12-preview.19/Unity.Mathematics/float3.gen.cs
-i:D:/yuanfang/Pro/MinecraftECSPro/Library/PackageCache/com.unity.mathematics@0.0.12-preview.19/Unity.Mathematics/float3x2.gen.cs
-i:D:/yuanfang/Pro/MinecraftECSPro/Library/PackageCache/com.unity.mathematics@0.0.12-preview.19/Unity.Mathematics/float3x3.gen.cs
-i:D:/yuanfang/Pro/MinecraftECSPro/Library/PackageCache/com.unity.mathematics@0.0.12-preview.19/Unity.Mathematics/float3x4.gen.cs
-i:D:/yuanfang/Pro/MinecraftECSPro/Library/PackageCache/com.unity.mathematics@0.0.12-preview.19/Unity.Mathematics/float4.gen.cs
-i:D:/yuanfang/Pro/MinecraftECSPro/Library/PackageCache/com.unity.mathematics@0.0.12-preview.19/Unity.Mathematics/float4x2.gen.cs
-i:D:/yuanfang/Pro/MinecraftECSPro/Library/PackageCache/com.unity.mathematics@0.0.12-preview.19/Unity.Mathematics/float4x3.gen.cs
-i:D:/yuanfang/Pro/MinecraftECSPro/Library/PackageCache/com.unity.mathematics@0.0.12-preview.19/Unity.Mathematics/float4x4.gen.cs
-i:D:/yuanfang/Pro/MinecraftECSPro/Library/PackageCache/com.unity.mathematics@0.0.12-preview.19/Unity.Mathematics/half.cs
-i:D:/yuanfang/Pro/MinecraftECSPro/Library/PackageCache/com.unity.mathematics@0.0.12-preview.19/Unity.Mathematics/int2.gen.cs
-i:D:/yuanfang/Pro/MinecraftECSPro/Library/PackageCache/com.unity.mathematics@0.0.12-preview.19/Unity.Mathematics/int2x2.gen.cs
-i:D:/yuanfang/Pro/MinecraftECSPro/Library/PackageCache/com.unity.mathematics@0.0.12-preview.19/Unity.Mathematics/int2x3.gen.cs
-i:D:/yuanfang/Pro/MinecraftECSPro/Library/PackageCache/com.unity.mathematics@0.0.12-preview.19/Unity.Mathematics/int2x4.gen.cs
-i:D:/yuanfang/Pro/MinecraftECSPro/Library/PackageCache/com.unity.mathematics@0.0.12-preview.19/Unity.Mathematics/int3.gen.cs
-i:D:/yuanfang/Pro/MinecraftECSPro/Library/PackageCache/com.unity.mathematics@0.0.12-preview.19/Unity.Mathematics/int3x2.gen.cs
-i:D:/yuanfang/Pro/MinecraftECSPro/Library/PackageCache/com.unity.mathematics@0.0.12-preview.19/Unity.Mathematics/int3x3.gen.cs
-i:D:/yuanfang/Pro/MinecraftECSPro/Library/PackageCache/com.unity.mathematics@0.0.12-preview.19/Unity.Mathematics/int3x4.gen.cs
-i:D:/yuanfang/Pro/MinecraftECSPro/Library/PackageCache/com.unity.mathematics@0.0.12-preview.19/Unity.Mathematics/int4.gen.cs
-i:D:/yuanfang/Pro/MinecraftECSPro/Library/PackageCache/com.unity.mathematics@0.0.12-preview.19/Unity.Mathematics/int4x2.gen.cs
-i:D:/yuanfang/Pro/MinecraftECSPro/Library/PackageCache/com.unity.mathematics@0.0.12-preview.19/Unity.Mathematics/int4x3.gen.cs
-i:D:/yuanfang/Pro/MinecraftECSPro/Library/PackageCache/com.unity.mathematics@0.0.12-preview.19/Unity.Mathematics/int4x4.gen.cs
-i:D:/yuanfang/Pro/MinecraftECSPro/Library/PackageCache/com.unity.mathematics@0.0.12-preview.19/Unity.Mathematics/math.cs
-i:D:/yuanfang/Pro/MinecraftECSPro/Library/PackageCache/com.unity.mathematics@0.0.12-preview.19/Unity.Mathematics/math_unity_conversion.cs
-i:D:/yuanfang/Pro/MinecraftECSPro/Library/PackageCache/com.unity.mathematics@0.0.12-preview.19/Unity.Mathematics/matrix.cs
-i:D:/yuanfang/Pro/MinecraftECSPro/Library/PackageCache/com.unity.mathematics@0.0.12-preview.19/Unity.Mathematics/matrix.gen.cs
-i:D:/yuanfang/Pro/MinecraftECSPro/Library/PackageCache/com.unity.mathematics@0.0.12-preview.19/Unity.Mathematics/Noise/cellular2D.cs
-i:D:/yuanfang/Pro/MinecraftECSPro/Library/PackageCache/com.unity.mathematics@0.0.12-preview.19/Unity.Mathematics/Noise/cellular2x2.cs
-i:D:/yuanfang/Pro/MinecraftECSPro/Library/PackageCache/com.unity.mathematics@0.0.12-preview.19/Unity.Mathematics/Noise/cellular2x2x2.cs
-i:D:/yuanfang/Pro/MinecraftECSPro/Library/PackageCache/com.unity.mathematics@0.0.12-preview.19/Unity.Mathematics/Noise/cellular3D.cs
-i:D:/yuanfang/Pro/MinecraftECSPro/Library/PackageCache/com.unity.mathematics@0.0.12-preview.19/Unity.Mathematics/Noise/classicnoise2D.cs
-i:D:/yuanfang/Pro/MinecraftECSPro/Library/PackageCache/com.unity.mathematics@0.0.12-preview.19/Unity.Mathematics/Noise/classicnoise3D.cs
-i:D:/yuanfang/Pro/MinecraftECSPro/Library/PackageCache/com.unity.mathematics@0.0.12-preview.19/Unity.Mathematics/Noise/classicnoise4D.cs
-i:D:/yuanfang/Pro/MinecraftECSPro/Library/PackageCache/com.unity.mathematics@0.0.12-preview.19/Unity.Mathematics/Noise/common.cs
-i:D:/yuanfang/Pro/MinecraftECSPro/Library/PackageCache/com.unity.mathematics@0.0.12-preview.19/Unity.Mathematics/Noise/noise2D.cs
-i:D:/yuanfang/Pro/MinecraftECSPro/Library/PackageCache/com.unity.mathematics@0.0.12-preview.19/Unity.Mathematics/Noise/noise3D.cs
-i:D:/yuanfang/Pro/MinecraftECSPro/Library/PackageCache/com.unity.mathematics@0.0.12-preview.19/Unity.Mathematics/Noise/noise3Dgrad.cs
-i:D:/yuanfang/Pro/MinecraftECSPro/Library/PackageCache/com.unity.mathematics@0.0.12-preview.19/Unity.Mathematics/Noise/noise4D.cs
-i:D:/yuanfang/Pro/MinecraftECSPro/Library/PackageCache/com.unity.mathematics@0.0.12-preview.19/Unity.Mathematics/Noise/psrdnoise2D.cs
-i:D:/yuanfang/Pro/MinecraftECSPro/Library/PackageCache/com.unity.mathematics@0.0.12-preview.19/Unity.Mathematics/PropertyAttributes.cs
-i:D:/yuanfang/Pro/MinecraftECSPro/Library/PackageCache/com.unity.mathematics@0.0.12-preview.19/Unity.Mathematics/quaternion.cs
-i:D:/yuanfang/Pro/MinecraftECSPro/Library/PackageCache/com.unity.mathematics@0.0.12-preview.19/Unity.Mathematics/random.cs
-i:D:/yuanfang/Pro/MinecraftECSPro/Library/PackageCache/com.unity.mathematics@0.0.12-preview.19/Unity.Mathematics/rigid_transform.cs
-i:D:/yuanfang/Pro/MinecraftECSPro/Library/PackageCache/com.unity.mathematics@0.0.12-preview.19/Unity.Mathematics/uint2.gen.cs
-i:D:/yuanfang/Pro/MinecraftECSPro/Library/PackageCache/com.unity.mathematics@0.0.12-preview.19/Unity.Mathematics/uint2x2.gen.cs
-i:D:/yuanfang/Pro/MinecraftECSPro/Library/PackageCache/com.unity.mathematics@0.0.12-preview.19/Unity.Mathematics/uint2x3.gen.cs
-i:D:/yuanfang/Pro/MinecraftECSPro/Library/PackageCache/com.unity.mathematics@0.0.12-preview.19/Unity.Mathematics/uint2x4.gen.cs
-i:D:/yuanfang/Pro/MinecraftECSPro/Library/PackageCache/com.unity.mathematics@0.0.12-preview.19/Unity.Mathematics/uint3.gen.cs
-i:D:/yuanfang/Pro/MinecraftECSPro/Library/PackageCache/com.unity.mathematics@0.0.12-preview.19/Unity.Mathematics/uint3x2.gen.cs
-i:D:/yuanfang/Pro/MinecraftECSPro/Library/PackageCache/com.unity.mathematics@0.0.12-preview.19/Unity.Mathematics/uint3x3.gen.cs
-i:D:/yuanfang/Pro/MinecraftECSPro/Library/PackageCache/com.unity.mathematics@0.0.12-preview.19/Unity.Mathematics/uint3x4.gen.cs
-i:D:/yuanfang/Pro/MinecraftECSPro/Library/PackageCache/com.unity.mathematics@0.0.12-preview.19/Unity.Mathematics/uint4.gen.cs
-i:D:/yuanfang/Pro/MinecraftECSPro/Library/PackageCache/com.unity.mathematics@0.0.12-preview.19/Unity.Mathematics/uint4x2.gen.cs
-i:D:/yuanfang/Pro/MinecraftECSPro/Library/PackageCache/com.unity.mathematics@0.0.12-preview.19/Unity.Mathematics/uint4x3.gen.cs
-i:D:/yuanfang/Pro/MinecraftECSPro/Library/PackageCache/com.unity.mathematics@0.0.12-preview.19/Unity.Mathematics/uint4x4.gen.cs
-v:0
